<?xml version="1.0" encoding="UTF-8"?>
<session version="1.0">
<refactoring comment="Rename resource &apos;Ethernet/main.c&apos; to &apos;easyweb.c&apos;" description="Rename resource &apos;main.c&apos;" flags="7" id="org.eclipse.ltk.core.refactoring.rename.resource" input="main.c" name="easyweb.c" stamp="1285878071546" updateReferences="true"/>
</session>